Additional Exercise Solutions – ETC3550/ETC5550 Applied forecasting
…
fit

# A mable: 1 x 5
# Key:     Country [1]
  Country          ets    ets_damped       ets_bc      ets_log
  <fct>        <model>       <model>      <model>      <model>
1 China   <ETS(M,A,N)> <ETS(M,Ad,N)> <ETS(A,A,N)> <ETS(A,A,N)>

augment(fit)

# A tsibble: 232 x 7 [1Y]
# Key:       Country, .model [4]
   Country .model  Year          GDP      .fitted        .resid   .innov
   <fct>   <chr>  <dbl>        <dbl>        <dbl>         <dbl>    <dbl>
 1 China   ets     1960 59716467625. 49001691297.  10714776328.  0.219  
 2 China   ets     1961 50056868958. 66346643194. -16289774236. -0.246  
 3 China   ets     1962 47209359006. 51607368186.  -4398009180. -0.0852 
 4 China   ets     1963 50706799903. 47386494407.   3320305495.  0.0701 
 5 China   ets     1964 59708343489. 51919091574.   7789251914.  0.150  
 6 China   ets     1965 70436266147. 63350421234.   7085844913.  0.112  
 7 China   ets     1966 76720285970. 76289186599.    431099371.  0.00565
 8 China   ets     1967 72881631327. 82708375812.  -9826744486. -0.119  
 9 China   ets     1968 70846535056. 75804820984.  -4958285928. -0.0654 
10 China   ets     1969 79705906247. 72222259470.   7483646777.  0.104  
# ℹ 222 more rows
…
