Exercise Week 12: Solutions – ETC3550/ETC5550 Applied forecasting
…
No apparent problems. Similar plots needed for the other states.

Forecast the takings for each state to the end of 2017. (Hint: You will need to produce forecasts of the CPI first.)

# CPI forecasts
cpif <- aus_accommodation |>
  model(ARIMA(CPI)) |>
  forecast(h = 6) |>
  as_tsibble() |>
  select(Date, State, CPI = .mean)
fit |>
  forecast(new_data = cpif) |>
  mutate(Takings = adjTakings * CPI / 100)

# A fable: 48 x 7 [1Q]
# Key:     State, .model [8]
   State                        .model                                      Date
   <chr>                        <chr>                                      <qtr>
 1 Australian Capital Territory "ARIMA(adjTakings ~ season() + trend(kn… 2016 Q3
 2 Australian Capital Territory "ARIMA(adjTakings ~ season() + trend(kn… 2016 Q4
 3 Australian Capital Territory "ARIMA(adjTakings ~ season() + trend(kn… 2017 Q1
 4 Australian Capital Territory "ARIMA(adjTakings ~ season() + trend(kn… 2017 Q2
 5 Australian Capital Territory "ARIMA(adjTakings ~ season() + trend(kn… 2017 Q3
 6 Australian Capital Territory "ARIMA(adjTakings ~ season() + trend(kn… 2017 Q4
 7 New South Wales              "ARIMA(adjTakings ~ season() + trend(kn… 2016 Q3
 8 New South Wales              "ARIMA(adjTakings ~ season() + trend(kn… 2016 Q4
 9 New South Wales              "ARIMA(adjTakings ~ season() + trend(kn… 2017 Q1
10 New South Wales              "ARIMA(adjTakings ~ season() + trend(kn… 2017 Q2
# ℹ 38 more rows
# ℹ 4 more variables: adjTakings <dist>, .mean <dbl>, CPI <dbl>, Takings <dist>
…
