Exercise Week 11: Solutions – ETC3550/ETC5550 Applied forecasting
…
The running times are generally decreasing as time progresses (although the rate of this decline is slowing down in recent olympics). There are some missing values in the data corresponding to the World Wars (in which the Olympic Games were not held).

Fit a regression line to the data. Obviously the winning times have been decreasing, but at what average rate per year?

fit <- olympic_running |>
  model(TSLM(Time ~ trend()))
tidy(fit)

# A tibble: 28 × 8
   Length Sex   .model               term  estimate std.error statistic  p.value
    <int> <chr> <chr>                <chr>    <dbl>     <dbl>     <dbl>    <dbl>
 1    100 men   TSLM(Time ~ trend()) (Int…  11.1      0.0909     123.   1.86e-37
 2    100 men   TSLM(Time ~ trend()) tren…  -0.0504   0.00479    -10.5  7.24e-11
 3    100 women TSLM(Time ~ trend()) (Int…  12.4      0.163       76.0  4.58e-25
 4    100 women TSLM(Time ~ trend()) tren…  -0.0567   0.00749     -7.58 3.72e- 7
 5    200 men   TSLM(Time ~ trend()) (Int…  22.3      0.140      159.   4.06e-39
 6    200 men   TSLM(Time ~ trend()) tren…  -0.0995   0.00725    -13.7  3.80e-13
 7    200 women TSLM(Time ~ trend()) (Int…  25.5      0.525       48.6  8.34e-19
 8    200 women TSLM(Time ~ trend()) tren…  -0.135    0.0227      -5.92 2.17e- 5
 9    400 men   TSLM(Time ~ trend()) (Int…  50.3      0.445      113.   1.53e-36
10    400 men   TSLM(Time ~ trend()) tren…  -0.258    0.0235     -11.0  2.75e-11
# ℹ 18 more rows
…
