Activities: Week 1 – ETC3550/ETC5550 Applied forecasting
…
Activities: Week 1

Time series data and patterns

Exercise 1

The pedestrian dataset contains hourly pedestrian counts from 2015-01-01 to 2016-12-31 at 4 sensors in the city of Melbourne.

The data is shown below:

# A tibble: 66,037 × 5
   Sensor         Date_Time           Date        Time Count
   <chr>          <dttm>              <date>     <int> <int>
 1 Birrarung Marr 2015-01-01 00:00:00 2015-01-01     0  1630
 2 Birrarung Marr 2015-01-01 01:00:00 2015-01-01     1   826
 3 Birrarung Marr 2015-01-01 02:00:00 2015-01-01     2   567
 4 Birrarung Marr 2015-01-01 03:00:00 2015-01-01     3   264
 5 Birrarung Marr 2015-01-01 04:00:00 2015-01-01     4   139
 6 Birrarung Marr 2015-01-01 05:00:00 2015-01-01     5    77
 7 Birrarung Marr 2015-01-01 06:00:00 2015-01-01     6    44
 8 Birrarung Marr 2015-01-01 07:00:00 2015-01-01     7    56
 9 Birrarung Marr 2015-01-01 08:00:00 2015-01-01     8   113
10 Birrarung Marr 2015-01-01 09:00:00 2015-01-01     9   166
# ℹ 66,027 more rows
…
Exercise 4

The tourism dataset contains the quarterly overnight trips from 1998 Q1 to 2016 Q4 across Australia.

It is disaggregated by 3 key variables:

State: States and territories of Australia

Region: The tourism regions are formed through the aggregation of Statistical Local Areas (SLAs) which are defined by the various State and Territory tourism authorities according to their research and marketing needs

Purpose: Stopover purpose of visit: “Holiday”, “Visiting friends and relatives”, “Business”, “Other reason”.

Below is a preview:

# A tsibble: 24,320 x 5 [1Q]
# Key:       Region, State, Purpose [304]
   Quarter Region   State           Purpose  Trips
     <qtr> <chr>    <chr>           <chr>    <dbl>
 1 1998 Q1 Adelaide South Australia Business  135.
 2 1998 Q2 Adelaide South Australia Business  110.
 3 1998 Q3 Adelaide South Australia Business  166.
 4 1998 Q4 Adelaide South Australia Business  127.
 5 1999 Q1 Adelaide South Australia Business  137.
 6 1999 Q2 Adelaide South Australia Business  200.
 7 1999 Q3 Adelaide South Australia Business  169.
 8 1999 Q4 Adelaide South Australia Business  134.
 9 2000 Q1 Adelaide South Australia Business  154.
10 2000 Q2 Adelaide South Australia Business  169.
# ℹ 24,310 more rows
…
