Exercise Week 2: Solutions – ETC3550/ETC5550 Applied forecasting
…
Explore the following four time series: Bricks from aus_production, Lynx from pelt, Close from gafa_stock, Demand from vic_elec.

Use ? (or help()) to find out about the data in each series.

What is the time interval of each series?

Use autoplot() to produce a time plot of each series.

For the last plot, modify the axis labels and title.

Bricks

aus_production

# A tsibble: 218 x 7 [1Q]
   Quarter  Beer Tobacco Bricks Cement Electricity   Gas
     <qtr> <dbl>   <dbl>  <dbl>  <dbl>       <dbl> <dbl>
 1 1956 Q1   284    5225    189    465        3923     5
 2 1956 Q2   213    5178    204    532        4436     6
 3 1956 Q3   227    5297    208    561        4806     7
 4 1956 Q4   308    5681    197    570        4418     6
 5 1957 Q1   262    5577    187    529        4339     5
 6 1957 Q2   228    5651    214    604        4811     7
 7 1957 Q3   236    5317    227    603        5259     7
 8 1957 Q4   320    6152    222    582        4735     6
 9 1958 Q1   272    5758    199    554        4608     5
10 1958 Q2   233    5641    229    620        5196     7
# ℹ 208 more rows
…
Canadian lynx trappings are cyclic, as the extent of peak trappings is unpredictable, and the spacing between the peaks is irregular but approximately 10 years.

Close

gafa_stock

# A tsibble: 5,032 x 8 [!]
# Key:       Symbol [4]
   Symbol Date        Open  High   Low Close Adj_Close    Volume
   <chr>  <date>     <dbl> <dbl> <dbl> <dbl>     <dbl>     <dbl>
 1 AAPL   2014-01-02  79.4  79.6  78.9  79.0      67.0  58671200
 2 AAPL   2014-01-03  79.0  79.1  77.2  77.3      65.5  98116900
 3 AAPL   2014-01-06  76.8  78.1  76.2  77.7      65.9 103152700
 4 AAPL   2014-01-07  77.8  78.0  76.8  77.1      65.4  79302300
 5 AAPL   2014-01-08  77.0  77.9  77.0  77.6      65.8  64632400
 6 AAPL   2014-01-09  78.1  78.1  76.5  76.6      65.0  69787200
 7 AAPL   2014-01-10  77.1  77.3  75.9  76.1      64.5  76244000
 8 AAPL   2014-01-13  75.7  77.5  75.7  76.5      64.9  94623200
 9 AAPL   2014-01-14  76.9  78.1  76.8  78.1      66.1  83140400
10 AAPL   2014-01-15  79.1  80.0  78.8  79.6      67.5  97909700
# ℹ 5,022 more rows
…
The downturn in the second half of 2018 is now very clear, with Facebook taking a big drop (about 20%) in the middle of the year.

The stocks tend to move roughly together, as you would expect with companies in the same industry.

Demand

vic_elec

# A tsibble: 52,608 x 5 [30m] <Australia/Melbourne>
   Time                Demand Temperature Date       Holiday
   <dttm>               <dbl>       <dbl> <date>     <lgl>  
 1 2012-01-01 00:00:00  4383.        21.4 2012-01-01 TRUE   
 2 2012-01-01 00:30:00  4263.        21.0 2012-01-01 TRUE   
 3 2012-01-01 01:00:00  4049.        20.7 2012-01-01 TRUE   
 4 2012-01-01 01:30:00  3878.        20.6 2012-01-01 TRUE   
 5 2012-01-01 02:00:00  4036.        20.4 2012-01-01 TRUE   
 6 2012-01-01 02:30:00  3866.        20.2 2012-01-01 TRUE   
 7 2012-01-01 03:00:00  3694.        20.1 2012-01-01 TRUE   
 8 2012-01-01 03:30:00  3562.        19.6 2012-01-01 TRUE   
 9 2012-01-01 04:00:00  3433.        19.1 2012-01-01 TRUE   
10 2012-01-01 04:30:00  3359.        19.0 2012-01-01 TRUE   
# ℹ 52,598 more rows
…
Find what combination of Region and Purpose had the maximum number of overnight trips on average.

Create a new tsibble which combines the Purposes and Regions, and just has total trips by State.

download.file("http://OTexts.com/fpp3/extrafiles/tourism.xlsx",
              tourism_file <- tempfile(), mode = "wb")
my_tourism <- readxl::read_excel(tourism_file) |>
  mutate(Quarter = yearquarter(Quarter)) |>
  as_tsibble(
    index = Quarter,
    key = c(Region, State, Purpose)
  )
my_tourism

# A tsibble: 24,320 x 5 [1Q]
# Key:       Region, State, Purpose [304]
   Quarter Region   State           Purpose  Trips
     <qtr> <chr>    <chr>           <chr>    <dbl>
 1 1998 Q1 Adelaide South Australia Business  135.
 2 1998 Q2 Adelaide South Australia Business  110.
 3 1998 Q3 Adelaide South Australia Business  166.
 4 1998 Q4 Adelaide South Australia Business  127.
 5 1999 Q1 Adelaide South Australia Business  137.
 6 1999 Q2 Adelaide South Australia Business  200.
 7 1999 Q3 Adelaide South Australia Business  169.
 8 1999 Q4 Adelaide South Australia Business  134.
 9 2000 Q1 Adelaide South Australia Business  154.
10 2000 Q2 Adelaide South Australia Business  169.
# ℹ 24,310 more rows

tourism

# A tsibble: 24,320 x 5 [1Q]
# Key:       Region, State, Purpose [304]
   Quarter Region   State           Purpose  Trips
     <qtr> <chr>    <chr>           <chr>    <dbl>
 1 1998 Q1 Adelaide South Australia Business  135.
 2 1998 Q2 Adelaide South Australia Business  110.
 3 1998 Q3 Adelaide South Australia Business  166.
 4 1998 Q4 Adelaide South Australia Business  127.
 5 1999 Q1 Adelaide South Australia Business  137.
 6 1999 Q2 Adelaide South Australia Business  200.
 7 1999 Q3 Adelaide South Australia Business  169.
 8 1999 Q4 Adelaide South Australia Business  134.
 9 2000 Q1 Adelaide South Australia Business  154.
10 2000 Q2 Adelaide South Australia Business  169.
# ℹ 24,310 more rows
…
# A tibble: 1 × 3
  Region Purpose  Trips
  <chr>  <chr>    <dbl>
1 Sydney Visiting  747.

state_tourism <- my_tourism |>
  group_by(State) |>
  summarise(Trips = sum(Trips)) |>
  ungroup()
state_tourism

# A tsibble: 640 x 3 [1Q]
# Key:       State [8]
   State Quarter Trips
   <chr>   <qtr> <dbl>
 1 ACT   1998 Q1  551.
 2 ACT   1998 Q2  416.
 3 ACT   1998 Q3  436.
 4 ACT   1998 Q4  450.
 5 ACT   1999 Q1  379.
 6 ACT   1999 Q2  558.
 7 ACT   1999 Q3  449.
 8 ACT   1999 Q4  595.
 9 ACT   2000 Q1  600.
10 ACT   2000 Q2  557.
# ℹ 630 more rows
…
1-B, 2-A, 3-D, 4-C

fpp3 2.10, Ex 10

The aus_livestock data contains the monthly total number of pigs slaughtered in Victoria, Australia, from Jul 1972 to Dec 2018. Use filter() to extract pig slaughters in Victoria between 1990 and 1995. Use autoplot and ACF for this data. How do they differ from white noise? If a longer period of data is used, what difference does it make to the ACF?

vic_pigs <- aus_livestock |>
  filter(Animal == "Pigs", State == "Victoria", between(year(Month), 1990, 1995))
vic_pigs

# A tsibble: 72 x 4 [1M]
# Key:       Animal, State [1]
      Month Animal State    Count
      <mth> <fct>  <fct>    <dbl>
 1 1990 Jan Pigs   Victoria 76000
 2 1990 Feb Pigs   Victoria 78100
 3 1990 Mar Pigs   Victoria 77600
 4 1990 Apr Pigs   Victoria 84100
 5 1990 May Pigs   Victoria 98000
 6 1990 Jun Pigs   Victoria 89100
 7 1990 Jul Pigs   Victoria 93500
 8 1990 Aug Pigs   Victoria 84700
 9 1990 Sep Pigs   Victoria 74500
10 1990 Oct Pigs   Victoria 91900
# ℹ 62 more rows
…
