Exercise Week 3: Solutions – ETC3550/ETC5550 Applied forecasting
…
global_economy |>
  mutate(gdp_pc = GDP / Population) |>
  as_tibble() |>
  group_by(Year) |>
  mutate(max_gdp_pc = max(gdp_pc, na.rm = TRUE)) |>
  ungroup() |>
  filter(
    gdp_pc == max_gdp_pc,
    Year >= 1970
  ) |>
  arrange(Year)

# A tibble: 48 × 11
   Country    Code   Year     GDP Growth   CPI Imports Exports Population gdp_pc
   <fct>      <fct> <dbl>   <dbl>  <dbl> <dbl>   <dbl>   <dbl>      <dbl>  <dbl>
 1 Monaco     MCO    1970 2.93e 8 NA        NA      NA      NA      23484 12480.
 2 Monaco     MCO    1971 3.28e 8  5.23     NA      NA      NA      23720 13813.
 3 Monaco     MCO    1972 4.02e 8  4.65     NA      NA      NA      24051 16734.
 4 Monaco     MCO    1973 5.24e 8  6.55     NA      NA      NA      24439 21423.
 5 Monaco     MCO    1974 5.64e 8  4.47     NA      NA      NA      24835 22707.
 6 Monaco     MCO    1975 7.12e 8 -0.973    NA      NA      NA      25197 28254.
 7 United Ar… ARE    1976 1.92e10 16.5      NA      NA      NA     646943 29698.
 8 United Ar… ARE    1977 2.49e10 21.4      NA      NA      NA     748117 33246.
 9 Monaco     MCO    1978 1.00e 9  3.95     NA      NA      NA      26087 38354.
10 Monaco     MCO    1979 1.21e 9  3.53     NA      NA      NA      26395 45838.
# ℹ 38 more rows
# ℹ 1 more variable: max_gdp_pc <dbl>
…
The changes in seasonality are possibly due to changes in the regulation of gas prices.

Do an STL decomposition of the data. You will need to choose a seasonal window to allow for the changing shape of the seasonal component.

fit <- canadian_gas |>
  model(STL(Volume)) |>
  components()

fit

# A dable: 542 x 7 [1M]
# Key:     .model [1]
# :        Volume = trend + season_year + remainder
   .model         Month Volume trend season_year remainder season_adjust
   <chr>          <mth>  <dbl> <dbl>       <dbl>     <dbl>         <dbl>
 1 STL(Volume) 1960 Jan  1.43   1.08      0.520   -0.172           0.911
 2 STL(Volume) 1960 Feb  1.31   1.11      0.215   -0.0178          1.09 
 3 STL(Volume) 1960 Mar  1.40   1.13      0.307   -0.0395          1.09 
 4 STL(Volume) 1960 Apr  1.17   1.16      0.0161  -0.00627         1.15 
 5 STL(Volume) 1960 May  1.12   1.18     -0.116    0.0476          1.23 
 6 STL(Volume) 1960 Jun  1.01   1.21     -0.356    0.159           1.37 
 7 STL(Volume) 1960 Jul  0.966  1.23     -0.403    0.136           1.37 
 8 STL(Volume) 1960 Aug  0.977  1.26     -0.349    0.0677          1.33 
 9 STL(Volume) 1960 Sep  1.03   1.28     -0.340    0.0870          1.37 
10 STL(Volume) 1960 Oct  1.25   1.31     -0.0899   0.0329          1.34 
# ℹ 532 more rows
…
