Exercise Week 5: Solutions – ETC3550/ETC5550 Applied forecasting
…
This is far from white noise. There is strong seasonality and increasing variance that has not been accounted for by the naive model.

fpp3 5.10, Ex 12

tourism contains quarterly visitor nights (in thousands) from 1998 to 2017 for 76 regions of Australia.

Extract data from the Gold Coast region using filter() and aggregate total overnight trips (sum over Purpose) using summarise(). Call this new dataset gc_tourism.

gc_tourism <- tourism |>
  filter(Region == "Gold Coast") |>
  summarise(Trips = sum(Trips))
gc_tourism

# A tsibble: 80 x 2 [1Q]
   Quarter Trips
     <qtr> <dbl>
 1 1998 Q1  827.
 2 1998 Q2  681.
 3 1998 Q3  839.
 4 1998 Q4  820.
 5 1999 Q1  987.
 6 1999 Q2  751.
 7 1999 Q3  822.
 8 1999 Q4  914.
 9 2000 Q1  871.
10 2000 Q2  780.
# ℹ 70 more rows
…
